{"count":18,"page":1,"page_size":10,"total_pages":2,"incidents":[{"id":"9ae212f4","title":"NHLViewer beta performance affected","description":"Earlier today, the beta service was affected heavily. I am currently monitoring for further evaluation.","date":"2022-10-24T03:29:04.000Z","modified":"2022-10-24T03:29:05.000Z","scheduled":null,"severity":"degraded-performance","affectedsystems":["nhlv-frontend"],"resolved":false,"content":"<p>Earlier today, the beta service was affected heavily. I am currently monitoring for further evaluation.</p>\n"},{"id":"004fe868","title":"NHLViewer beta upstream issue","description":"We have detected downtime on one of our beta services utilizing Render. You can still use the stable version. Track the incident from Render here: https://status.render.com/incidents/mnmbhg8hl7kd","date":"2022-10-03T22:57:28.000Z","modified":"2022-10-05T02:52:15.000Z","scheduled":null,"severity":"partial-outage","affectedsystems":["nhlv-frontend"],"resolved":true,"content":"<p>We have detected downtime on one of our beta services utilizing Render. You can still use the stable version. Track the incident from Render here: https://status.render.com/incidents/mnmbhg8hl7kd</p>\n<div class=\"update-block\">\n          <div class=\"update-block-date\">2022-10-04T01:39:49.000Z</div>\n          <div class=\"update-block-content\">\n            <div class=\"update-block-title\">Identified</div>\n            <div class=\"update-block-body\">\n<p>Render is still working on a fix for the downtime. No ETA at the moment.</p>\n</div></div></div>\n<div class=\"update-block\">\n          <div class=\"update-block-date\">2022-10-05T02:52:15.000Z</div>\n          <div class=\"update-block-content\">\n            <div class=\"update-block-title\">Resolved</div>\n            <div class=\"update-block-body\">\n<p>Render has pushed out a fix and the beta service is now operational. If the issue arises again, this will be reopened.</p>\n</div></div></div>\n"},{"id":"77d6ac39","title":"Migrating edge APIs","description":"This will take about an hour to complete.","date":"2022-09-30T22:07:05.000Z","modified":"2022-09-30T23:49:09.000Z","scheduled":null,"severity":"under-maintenance","affectedsystems":["pki-api","cdn","pki-cdn","edge-cdn","backup-edge-cdn"],"resolved":true,"content":"<p>This will take about an hour to complete.</p>\n<div class=\"update-block\">\n          <div class=\"update-block-date\">2022-09-30T23:21:29.000Z</div>\n          <div class=\"update-block-content\">\n            <div class=\"update-block-title\">Update</div>\n            <div class=\"update-block-body\">\n<p>CDNs are back up. 😃 Working on getting the PKI to at least functional again.</p>\n</div></div></div>\n<div class=\"update-block\">\n          <div class=\"update-block-date\">2022-09-30T23:49:09.000Z</div>\n          <div class=\"update-block-content\">\n            <div class=\"update-block-title\">Resolved</div>\n            <div class=\"update-block-body\">\n<p>Migration is complete. There is some last few issues to resolve but are very minor.</p>\n</div></div></div>\n"},{"id":"f7091688","title":"Migrating GitLab Instance to OVH","description":"This will take about an hour to complete.","date":"2022-09-21T02:11:09.000Z","modified":"2022-09-21T03:40:03.000Z","scheduled":null,"severity":"under-maintenance","affectedsystems":["gitlab"],"resolved":true,"content":"<p>This will take about an hour to complete.</p>\n<div class=\"update-block\">\n          <div class=\"update-block-date\">2022-09-21T03:40:03.000Z</div>\n          <div class=\"update-block-content\">\n            <div class=\"update-block-title\">Resolved</div>\n            <div class=\"update-block-body\">\n<p>Migration is complete.</p>\n</div></div></div>\n"},{"id":"6e723601","title":"Issue with NHLViewer frontend","description":"There is an ongoing issue with the upstream DNS provider. https://status.heroku.com/incidents/2453","date":"2022-08-24T00:23:31.000Z","modified":"2022-08-24T01:05:43.000Z","scheduled":null,"severity":"major-outage","affectedsystems":["nhlv-frontend"],"resolved":true,"content":"<p>There is an ongoing issue with the upstream DNS provider. https://status.heroku.com/incidents/2453</p>\n<div class=\"update-block\">\n          <div class=\"update-block-date\">2022-08-24T01:05:43.000Z</div>\n          <div class=\"update-block-content\">\n            <div class=\"update-block-title\">Resolved</div>\n            <div class=\"update-block-body\">\n<p>Looks like the issue was resolved.</p>\n</div></div></div>\n"},{"id":"7feebb21","title":"Migrating GitLab Instance","description":"This migration will take up to an hour to complete.","date":"2022-08-23T00:59:30.000Z","modified":"2022-08-23T02:02:23.000Z","scheduled":null,"severity":"under-maintenance","affectedsystems":["gitlab"],"resolved":true,"content":"<p>This migration will take up to an hour to complete.</p>\n<div class=\"update-block\">\n          <div class=\"update-block-date\">2022-08-23T02:02:22.000Z</div>\n          <div class=\"update-block-content\">\n            <div class=\"update-block-title\">Resolved</div>\n            <div class=\"update-block-body\">\n<p>Migration is complete.</p>\n</div></div></div>\n"},{"id":"408a1b92","title":"CloudFlare Issue","description":"A CloudFlare issue is impacting the following services.","date":"2022-06-21T06:59:16.000Z","modified":"2022-06-21T07:44:46.000Z","scheduled":null,"severity":"major-outage","affectedsystems":["nhlv-frontend"],"resolved":true,"content":"<p>A CloudFlare issue is impacting the following services.</p>\n<div class=\"update-block\">\n          <div class=\"update-block-date\">2022-06-21T07:21:46.000Z</div>\n          <div class=\"update-block-content\">\n            <div class=\"update-block-title\">Monitoring</div>\n            <div class=\"update-block-body\">\n<p>Issue seems to be somewhat fixed.</p>\n</div></div></div>\n<div class=\"update-block\">\n          <div class=\"update-block-date\">2022-06-21T07:44:46.000Z</div>\n          <div class=\"update-block-content\">\n            <div class=\"update-block-title\">Resolved</div>\n            <div class=\"update-block-body\">\n<p>Issue seems to be resolved on CloudFlare's end with my service(s). As a result, I am marking this issue as resolved.</p>\n</div></div></div>\n"},{"id":"293cf5f6","title":"Acidity V3 API Cert Issue","description":"Certificate needs to be renewed.","date":"2022-03-09T23:21:11.000Z","modified":"2022-03-09T23:26:52.000Z","scheduled":null,"severity":"major-outage","affectedsystems":["acidityv3-api"],"resolved":true,"content":"<p>Certificate needs to be renewed.</p>\n<div class=\"update-block\">\n          <div class=\"update-block-date\">2022-03-09T23:26:52.000Z</div>\n          <div class=\"update-block-content\">\n            <div class=\"update-block-title\">Resolved</div>\n            <div class=\"update-block-body\">\n<p>Certificate has been renewed.</p>\n</div></div></div>\n"},{"id":"6aef8b7c","title":"Roblox experiencing issues again","description":"RBXExchange is affected by the current Roblox outage again. Please wait for a fix.","date":"2022-02-20T06:02:28.000Z","modified":"2022-02-20T09:32:52.000Z","scheduled":null,"severity":"degraded-performance","affectedsystems":["rbxexchange-api"],"resolved":true,"content":"<p>RBXExchange is affected by the current Roblox outage again. Please wait for a fix.</p>\n<div class=\"update-block\">\n          <div class=\"update-block-date\">2022-02-20T07:04:32.000Z</div>\n          <div class=\"update-block-content\">\n            <div class=\"update-block-title\">Update</div>\n            <div class=\"update-block-body\">\n<p>Roblox is slowly coming back for some users.</p>\n</div></div></div>\n<div class=\"update-block\">\n          <div class=\"update-block-date\">2022-02-20T09:32:52.000Z</div>\n          <div class=\"update-block-content\">\n            <div class=\"update-block-title\">Resolved</div>\n            <div class=\"update-block-body\">\n<p>Roblox is operational for most regions and RBXExchange is now stable.</p>\n</div></div></div>\n"},{"id":"28a6eff2","title":"Roblox experiencing issues","description":"RBXExchange is affected by the current Roblox outage. Please wait for a fix.","date":"2022-02-19T19:00:41.000Z","modified":"2022-02-19T21:31:51.000Z","scheduled":null,"severity":"partial-outage","affectedsystems":["rbxexchange-api"],"resolved":true,"content":"<p>RBXExchange is affected by the current Roblox outage. Please wait for a fix.</p>\n<div class=\"update-block\">\n          <div class=\"update-block-date\">2022-02-19T21:31:51.000Z</div>\n          <div class=\"update-block-content\">\n            <div class=\"update-block-title\">Resolved</div>\n            <div class=\"update-block-body\">\n<p>Issue has been fixed.</p>\n</div></div></div>\n"}]}