{"count":6,"page":2,"page_size":3,"total_pages":2,"periods":[{"id":"2022-1","incidents":[{"id":"0ef109a8","title":"PKI API Maintenance","description":"The PKI API will go under maintenance for adding certain features that impact the PKI CA CDN.","date":"2022-01-27T08:31:33.000Z","modified":"2022-01-27T12:03:19.000Z","scheduled":null,"severity":"under-maintenance","affectedsystems":["pki-api"],"resolved":true,"content":"<p>The PKI API will go under maintenance for adding certain features that impact the PKI CA CDN.</p>\n<div class=\"update-block\">\n          <div class=\"update-block-date\">2022-01-27T12:03:19.000Z</div>\n          <div class=\"update-block-content\">\n            <div class=\"update-block-title\">Resolved</div>\n            <div class=\"update-block-body\">\n<p>PKI API maintenance complete.</p>\n</div></div></div>\n"},{"id":"0ef09549","title":"PKI CA CDN not working","description":"Investigating an issue regarding the global PKI CA CDN.","date":"2022-01-27T07:53:13.000Z","modified":"2022-01-27T08:26:39.000Z","scheduled":null,"severity":"partial-outage","affectedsystems":["pki-cdn"],"resolved":true,"content":"<p>Investigating an issue regarding the global PKI CA CDN.</p>\n<div class=\"update-block\">\n          <div class=\"update-block-date\">2022-01-27T08:26:39.000Z</div>\n          <div class=\"update-block-content\">\n            <div class=\"update-block-title\">Resolved</div>\n            <div class=\"update-block-body\">\n<p>PKI CA CDN has been redeployed and is up and operational. Updates will be made to ensure that it is fully functional.</p>\n</div></div></div>\n"}],"order":6,"count":2},{"id":"2021-11","incidents":[{"id":"0a4513b8","title":"Migrating to new PKI landing page","description":"This does not have to do with the actual PKI API but the main PKI landing page. Migration should be complete within an hour.","date":"2021-11-21T01:02:09.000Z","modified":"2021-11-21T02:10:50.000Z","scheduled":null,"severity":"under-maintenance","affectedsystems":["pki-api"],"resolved":true,"content":"<p>This does not have to do with the actual PKI API but the main PKI landing page. Migration should be complete within an hour.</p>\n<div class=\"update-block\">\n          <div class=\"update-block-date\">2021-11-21T02:10:50.000Z</div>\n          <div class=\"update-block-content\">\n            <div class=\"update-block-title\">Resolved</div>\n            <div class=\"update-block-body\">\n<p>Migration complete.</p>\n</div></div></div>\n"},{"id":"1da4eeea","title":"Test Maintenance 3","description":"Testing some new changes with incidents.","date":"2021-11-05T00:20:39.000Z","modified":"2021-11-05T00:23:24.000Z","scheduled":null,"severity":"under-maintenance","affectedsystems":["pki-api","cdn","acidityv2-landing","acidityv2-api"],"resolved":true,"content":"<p>Testing some new changes with incidents.</p>\n<div class=\"update-block\">\n          <div class=\"update-block-date\">2021-11-05T00:23:24.000Z</div>\n          <div class=\"update-block-content\">\n            <div class=\"update-block-title\">Resolved</div>\n            <div class=\"update-block-body\">\n<p>This issue has been resolved.</p>\n</div></div></div>\n"}],"order":8,"count":2},{"id":"2021-10","incidents":[{"id":"31680dcd","title":"PKI Maintenance #2","description":"Working on email domain control validation method.","date":"2021-10-31T19:16:50.000Z","modified":"2021-10-31T22:03:11.000Z","scheduled":null,"severity":"under-maintenance","affectedsystems":["pki-api"],"resolved":true,"content":"<p>Working on email domain control validation method.</p>\n<div class=\"update-block\">\n          <div class=\"update-block-date\">2021-10-31T19:23:56.000Z</div>\n          <div class=\"update-block-content\">\n            <div class=\"update-block-title\">Update</div>\n            <div class=\"update-block-body\">\n<p>Adding CSR generation endpoint as well.</p>\n</div></div></div>\n<div class=\"update-block\">\n          <div class=\"update-block-date\">2021-10-31T22:03:11.000Z</div>\n          <div class=\"update-block-content\">\n            <div class=\"update-block-title\">Resolved</div>\n            <div class=\"update-block-body\">\n<p>This incident has been resolved.</p>\n</div></div></div>\n"},{"id":"3167996e","title":"PKI Maintenance","description":"Frequent maintenance will be performed Oct 30 - Nov 6","date":"2021-10-31T05:08:07.000Z","modified":"2021-10-31T05:23:39.000Z","scheduled":null,"severity":"under-maintenance","affectedsystems":["pki-api"],"resolved":true,"content":"<p>Frequent maintenance will be performed Oct 30 - Nov 6</p>\n<div class=\"update-block\">\n          <div class=\"update-block-date\">2021-10-31T05:18:56.000Z</div>\n          <div class=\"update-block-content\">\n            <div class=\"update-block-title\">Update</div>\n            <div class=\"update-block-body\">\n<p>All necessary maintenance for Oct 30 has been performed</p>\n</div></div></div>\n<div class=\"update-block\">\n          <div class=\"update-block-date\">2021-10-31T05:23:39.000Z</div>\n          <div class=\"update-block-content\">\n            <div class=\"update-block-title\">Resolved</div>\n            <div class=\"update-block-body\">\n<p>This incident has been resolved.</p>\n</div></div></div>\n"}],"order":9,"count":2}]}