{"count":7,"page":1,"page_size":3,"total_pages":3,"periods":[{"id":"2022-8","incidents":[{"id":"7feebb21","title":"Migrating GitLab Instance","description":"This migration will take up to an hour to complete.","date":"2022-08-23T00:59:30.000Z","modified":"2022-08-23T02:02:23.000Z","scheduled":null,"severity":"under-maintenance","affectedsystems":["gitlab"],"resolved":true,"content":"<p>This migration will take up to an hour to complete.</p>\n<div class=\"update-block\">\n          <div class=\"update-block-date\">2022-08-23T02:02:22.000Z</div>\n          <div class=\"update-block-content\">\n            <div class=\"update-block-title\">Resolved</div>\n            <div class=\"update-block-body\">\n<p>Migration is complete.</p>\n</div></div></div>\n"}],"order":1,"count":1},{"id":"2022-6","incidents":[{"id":"408a1b92","title":"CloudFlare Issue","description":"A CloudFlare issue is impacting the following services.","date":"2022-06-21T06:59:16.000Z","modified":"2022-06-21T07:44:46.000Z","scheduled":null,"severity":"major-outage","affectedsystems":["nhlv-frontend"],"resolved":true,"content":"<p>A CloudFlare issue is impacting the following services.</p>\n<div class=\"update-block\">\n          <div class=\"update-block-date\">2022-06-21T07:21:46.000Z</div>\n          <div class=\"update-block-content\">\n            <div class=\"update-block-title\">Monitoring</div>\n            <div class=\"update-block-body\">\n<p>Issue seems to be somewhat fixed.</p>\n</div></div></div>\n<div class=\"update-block\">\n          <div class=\"update-block-date\">2022-06-21T07:44:46.000Z</div>\n          <div class=\"update-block-content\">\n            <div class=\"update-block-title\">Resolved</div>\n            <div class=\"update-block-body\">\n<p>Issue seems to be resolved on CloudFlare's end with my service(s). As a result, I am marking this issue as resolved.</p>\n</div></div></div>\n"}],"order":3,"count":1},{"id":"2022-3","incidents":[{"id":"293cf5f6","title":"Acidity V3 API Cert Issue","description":"Certificate needs to be renewed.","date":"2022-03-09T23:21:11.000Z","modified":"2022-03-09T23:26:52.000Z","scheduled":null,"severity":"major-outage","affectedsystems":["acidityv3-api"],"resolved":true,"content":"<p>Certificate needs to be renewed.</p>\n<div class=\"update-block\">\n          <div class=\"update-block-date\">2022-03-09T23:26:52.000Z</div>\n          <div class=\"update-block-content\">\n            <div class=\"update-block-title\">Resolved</div>\n            <div class=\"update-block-body\">\n<p>Certificate has been renewed.</p>\n</div></div></div>\n"}],"order":6,"count":1}]}